{"_id":{"$oid":"5e6e47a38793602bfc4273ba"},"nombres":"algebra","siglas":"alg","estado":true}
{"_id":{"$oid":"5e6e47cf8793602bfc4273bb"},"nombres":"aritmetica","siglas":"arit","estado":true}
{"_id":{"$oid":"5e6e47e38793602bfc4273bc"},"nombres":"geometria","siglas":"geo","estado":true}
{"_id":{"$oid":"5e6e47f48793602bfc4273bd"},"nombres":"trigonometria","siglas":"tri","estado":true}
{"_id":{"$oid":"5e6e48118793602bfc4273be"},"nombres":"razonamiento matematico","siglas":"rm","estado":true}
{"_id":{"$oid":"5f81deeb6445eb3116d94f11"},"nombres":"quimica","siglas":"quim","estado":true}
