{"_id":{"$oid":"5e6e372eebe0095ea390a9c3"},"nombres":"hector","apellidos":"arias","dni":"44705433","edad":38}
{"_id":{"$oid":"5e6e374eebe0095ea390a9c4"},"nombres":"alexander","apellidos":"arias","dni":"44705433","edad":22}
{"_id":{"$oid":"5e6e3752ebe0095ea390a9c5"},"nombres":"zoe","apellidos":"arias","dni":"44705433","edad":24}
{"_id":{"$oid":"5e6e3755ebe0095ea390a9c6"},"nombres":"liz","apellidos":"arias","dni":"44705433","edad":26}
{"_id":{"$oid":"5e6e377debe0095ea390a9c8"},"nombres":"alexander","apellidos":"oblitas","dni":"44705433","edad":33}
{"_id":{"$oid":"5f81dd336445eb3116d94f10"},"nombres":"HECTOR ALEXANDER","apellidos":"ARIAS OBLITAS","dni":"44705431","edad":30}
